%YAML 1.1
%TAG !u! tag:unity3d.com,2011:
--- !u!114 &11400000
MonoBehaviour:
  m_ObjectHideFlags: 0
  m_CorrespondingSourceObject: {fileID: 0}
  m_PrefabInstance: {fileID: 0}
  m_PrefabAsset: {fileID: 0}
  m_GameObject: {fileID: 0}
  m_Enabled: 1
  m_EditorHideFlags: 0
  m_Script: {fileID: 11500000, guid: 95e66c6366d904e98bc83428217d4fd7, type: 3}
  m_Name: CapsuleMovement
  m_EditorClassIdentifier: 
  _data:
    _json: '{"graph":{"variables":{"Kind":"Flow","collection":{"$content":[],"$version":"A"},"$version":"A"},"controlInputDefinitions":[],"controlOutputDefinitions":[],"valueInputDefinitions":[],"valueOutputDefinitions":[],"title":null,"summary":null,"pan":{"x":141.7188,"y":-69.80925},"zoom":1.0,"elements":[{"coroutine":false,"defaultValues":{},"position":{"x":-124.0,"y":-328.0},"guid":"7afd3023-7a20-4ccd-b1c0-ce31223a2cc1","$version":"A","$type":"Unity.VisualScripting.Update","$id":"9"},{"chainable":false,"parameterNames":["vector","maxLength"],"member":{"name":"ClampMagnitude","parameterTypes":["UnityEngine.Vector3","System.Single"],"targetType":"UnityEngine.Vector3","targetTypeName":"UnityEngine.Vector3","$version":"A"},"defaultValues":{"%vector":{"x":0.0,"y":0.0,"z":0.0,"$type":"UnityEngine.Vector3"},"%maxLength":{"$content":1.0,"$type":"System.Single"}},"position":{"x":106.0,"y":-228.0},"guid":"f102d8bf-db6a-484c-83a2-8d41882c5410","$version":"A","$type":"Unity.VisualScripting.InvokeMember","$id":"11"},{"chainable":false,"parameterNames":["translation"],"member":{"name":"Translate","parameterTypes":["UnityEngine.Vector3"],"targetType":"UnityEngine.Transform","targetTypeName":"UnityEngine.Transform","$version":"A"},"defaultValues":{"target":null,"%translation":{"x":0.0,"y":0.0,"z":0.0,"$type":"UnityEngine.Vector3"}},"position":{"x":419.0,"y":-247.0},"guid":"b335d746-c4d2-4af7-8fbf-8ff8920c99e6","$version":"A","$type":"Unity.VisualScripting.InvokeMember","$id":"15"},{"defaultValues":{},"position":{"x":324.0,"y":59.0},"guid":"1c70ff4f-5946-4c00-963e-d636a01eb30a","$version":"A","$type":"Unity.VisualScripting.GenericMultiply","$id":"19"},{"member":{"name":"deltaTime","parameterTypes":null,"targetType":"UnityEngine.Time","targetTypeName":"UnityEngine.Time","$version":"A"},"defaultValues":{},"position":{"x":-64.0,"y":187.0},"guid":"d921d352-d5f8-4bb8-8baa-4388c813dd6b","$version":"A","$type":"Unity.VisualScripting.GetMember","$id":"21"},{"specifyFallback":false,"kind":"Object","defaultValues":{"name":{"$content":"MoveSpeed","$type":"System.String"},"object":null},"position":{"x":44.0,"y":-36.0},"guid":"93fb6e0a-f528-448d-b7c9-67b35c061916","$version":"A","$type":"Unity.VisualScripting.GetVariable","$id":"24"},{"specifyFallback":false,"kind":"Object","defaultValues":{"name":{"$content":"MoveAxis","$type":"System.String"},"object":null},"position":{"x":-117.0,"y":-173.0},"guid":"6528dcea-d080-477b-873d-ee362105e160","$version":"A","$type":"Unity.VisualScripting.GetVariable","$id":"26"},{"defaultValues":{},"position":{"x":191.0,"y":259.0},"guid":"65cd42ea-02dd-46d6-adbc-25ec7360a4f0","$version":"A","$type":"Unity.VisualScripting.GenericMultiply","$id":"28"},{"sourceUnit":{"$ref":"9"},"sourceKey":"trigger","destinationUnit":{"$ref":"11"},"destinationKey":"enter","guid":"e4c39b50-ba8e-4b26-88d1-4d90ee8aeacf","$type":"Unity.VisualScripting.ControlConnection"},{"sourceUnit":{"$ref":"11"},"sourceKey":"exit","destinationUnit":{"$ref":"15"},"destinationKey":"enter","guid":"7d807479-4bc1-4dac-9f0d-39fcda76b8dd","$type":"Unity.VisualScripting.ControlConnection"},{"sourceUnit":{"$ref":"19"},"sourceKey":"product","destinationUnit":{"$ref":"15"},"destinationKey":"%translation","guid":"ae59b9c2-5cce-40e8-a802-64bd0619f6dd","$type":"Unity.VisualScripting.ValueConnection"},{"sourceUnit":{"$ref":"26"},"sourceKey":"value","destinationUnit":{"$ref":"11"},"destinationKey":"%vector","guid":"2c589892-372c-4caf-a8c9-355b84beaa0c","$type":"Unity.VisualScripting.ValueConnection"},{"sourceUnit":{"$ref":"28"},"sourceKey":"product","destinationUnit":{"$ref":"19"},"destinationKey":"b","guid":"e0483b3f-f5de-445f-8254-0f3e2267fe46","$type":"Unity.VisualScripting.ValueConnection"},{"sourceUnit":{"$ref":"11"},"sourceKey":"result","destinationUnit":{"$ref":"19"},"destinationKey":"a","guid":"d2278cec-693f-4e08-a2f4-2b97fef5994e","$type":"Unity.VisualScripting.ValueConnection"},{"sourceUnit":{"$ref":"24"},"sourceKey":"value","destinationUnit":{"$ref":"28"},"destinationKey":"a","guid":"bbf126bb-7dfa-4ab6-b22a-176a0c8b3ce5","$type":"Unity.VisualScripting.ValueConnection"},{"sourceUnit":{"$ref":"21"},"sourceKey":"value","destinationUnit":{"$ref":"28"},"destinationKey":"b","guid":"395cfa3f-72d1-4d82-bdb7-43cc6ed38bf3","$type":"Unity.VisualScripting.ValueConnection"}],"$version":"A"}}'
    _objectReferences: []
